…
使い方
------

    library(tororomecab)

    d <- 
      data.frame(
        sentence = c("メロスは激怒した。必ず、かの 邪智暴虐の王を除かなければならぬと決意した。",
                   "こんな夢を見た。\n腕組をして枕元に坐すわっていると、仰向あおむきに寝た女が、静かな声でもう死にますと云う。"))

    d_token <- 
      d %>% 
      mecab_token_df(sentence)
    d_token
    #> # A tibble: 61 x 6
    #>    doc_id sentence_id token_id token  pos    subtype   
    #>    <chr>        <int>    <int> <chr>  <chr>  <chr>     
    #>  1 1                1        1 メロス 名詞   一般      
    #>  2 1                1        2 は     助詞   係助詞    
    #>  3 1                1        3 激怒   名詞   サ変接続  
    #>  4 1                1        4 し     動詞   自立      
    #>  5 1                1        5 た     助動詞 <NA>      
    #>  6 1                1        6 。     記号   句点      
    #>  7 1                2        1 必ず   副詞   助詞類接続
    #>  8 1                2        2 、     記号   読点      
    #>  9 1                2        3 かの   連体詞 <NA>      
    #> 10 1                2        4 邪智   名詞   一般      
    #> # … with 51 more rows
…
